framework\Constants$2.class
framework\WebDriverCommands.class
framework\Constants$9.class
framework\Constants$13.class
framework\Constants$7.class
pageobjects\OfferEmailAuthPage.class
pageobjects\LevelTravelHomePage.class
framework\Sender$1.class
framework\Constants$11.class
framework\Sender.class
pageobjects\LevelTravelSearchPage.class
framework\Constants$4.class
pageobjects\PercentageCounter.class
framework\Constants$8.class
framework\EmailAuthenticator.class
framework\Constants$1.class
framework\SeleniumTestCase.class
pageobjects\OnlineToursHomePage.class
framework\Constants$6.class
framework\Constants$12.class
pageobjects\OnlineToursSearchPage.class
framework\Constants$5.class
framework\Constants.class
pageobjects\OfferEmailSearchPage.class
pageobjects\NTKPersonalCabinetPage.class
framework\Constants$10.class
framework\Constants$3.class
